[Project]
Toolset=AVR
FormatVersion=2
Files=1
OpenedFiles=1
F1=Main.c
Top0=328
Left0=395
Height0=337
Width0=489
Active0=0
State0=0
OF1=main.c
Top1=-30
Left1=-4
Height1=771
Width1=1049
Row1=1
Collumn1=51
Active1=1
State1=2
[Compiler]
Chip=ATtiny2313V
CPUClock=7372800
MemoryModel=0
OptimizeSize=1
OptimizationLevel=0
PrintfFeatures=1
ScanfFeatures=0
DataStackSize=32
PgmMemSize=2048
RAMStart=96
RAMEnd=223
XRAMSize=0
XRAMWaitState=0
HeapSize=0
ExternalInterruptVectors=0
InterruptVectorsNumber=19
InterruptVectorJump=0
ResetVector=0
PromoteCharToInt=0
CharIsUnsigned=1
8BitEnums=0
EnhancedCoreInstructions=1
AutomaticRegisterAllocation=1
WordAlignFLASHStructMembers=0
PreprocessorOutput=1
ExternalStartupFile=0
ExternalStartupFileWarning=0
BitVariablesSize=24
StackEndMarkers=0
Warnings=1
WarningConstantRange=0
WarningPossibleLossOfPrecision=0
WarningArrayIndex=1
WarningGlobalVariableAddress=1
WarningInterruptVector=1
WarningUninitializedFLASH=1
WarningUninitializedEEPROM=1
WarningSuspiciousPointerConversion=1
WarningRegisterAllocated=1
WarningMacroRedefined=1
WarningFunctionReturn=1
WarningUnreferencedFunction=1
WarningUnreferencedFunctionParameter=1
WarningUnreferencedLocalVariable=1
WarningUnreferencedGlobalVariable=1
WarningUnreferencedLabel=1
WarningEmptyLine=1
WarningExpressionHasNoEffect=1
WarningUnknownEscapeSequence=1
WarningShiftResult0=1
Warning8BitAdditionOverflow=1
Warning8BitMultiplicationOverflow=1
Warning16BitAdditionOverflow=1
Warning16BitMultiplicationOverflow=1
WarningPossiblyIncorrectAssignment=1
WarningPointlessComparison=1
WarningUndefinedSymbol=1
WarningCantAllocVarToReg=1
WarningDataStackUsage=1
WarningHardwareStackLow=1
DebugBootLoader=0
Build=5
UseEEPROMLocation0=1
IncludePath0=
IncludePath1=
IncludePath2=
IncludePath3=
IncludePath4=
IncludePath5=
IncludePath6=
IncludePath7=
IncludePath8=
IncludePath9=
IncludePath10=
IncludePath11=
IncludePath12=
IncludePath13=
IncludePath14=
IncludePath15=
IncludePath16=
IncludePath17=
IncludePath18=
IncludePath19=
IncludePath20=
IncludePath21=
IncludePath22=
IncludePath23=
IncludePath24=
IncludePath25=
IncludePath26=
IncludePath27=
IncludePath28=
IncludePath29=
IncludePath30=
IncludePath31=
LibraryPath0=
LibraryPath1=
LibraryPath2=
LibraryPath3=
LibraryPath4=
LibraryPath5=
LibraryPath6=
LibraryPath7=
LibraryPath8=
LibraryPath9=
LibraryPath10=
LibraryPath11=
LibraryPath12=
LibraryPath13=
LibraryPath14=
LibraryPath15=
LibraryPath16=
LibraryPath17=
LibraryPath18=
LibraryPath19=
LibraryPath20=
LibraryPath21=
LibraryPath22=
LibraryPath23=
LibraryPath24=
LibraryPath25=
LibraryPath26=
LibraryPath27=
LibraryPath28=
LibraryPath29=
LibraryPath30=
LibraryPath31=
[DefinedSymbols]
Count=0
[Assembler]
OutputFormat=1
TerminalIO=0
[AfterMake]
ProgrammChip=0
MergeROMFile=0
ROMFilePath=
LockBits=0
BootLockBits0=0
BootLockBits1=0
ProgramFuseBits=1
Fuse1=0
Fuse2=0
Fuse3=0
Fuse4=0
Fuse5=0
Fuse6=0
Fuse7=0
Fuse8=0
Fuse9=0
Fuse10=0
Fuse11=0
Fuse12=0
Fuse13=0
Fuse14=0
Fuse15=0
Fuse16=0
Fuse17=0
Fuse18=0
Fuse19=0
Fuse20=0
Fuse21=0
Fuse22=0
Fuse23=0
Fuse24=0
CheckSignature=1
CheckErasure=1
PreserveEEPROM=0
VerifyProgramming=1
ProgrammingCounter=0
RunUserProg=0
UserProgPath=
UserProgCmdLine=
UserProgWorkDir=
