:1000000013C0FECFFDCFFCCFFBCFFACFF9CFF8CF97
:10001000F7CFF6CFF5CFF4CFF3CFF2CFF1CFF0CFCC
:10002000EFCFEECFEDCF0000F894EE27ECBBE5BFAD
:10003000F8E1A4B7A77FA4BFF1BDE1BD8DE0A2E0C8
:10004000ED938A95E9F780E8A0E6ED938A95E9F7C4
:10005000E6E2F0E085919591009761F0A591B59168
:1000600005901590BF01F00105900D920197E1F701
:10007000FB01F0CFE0E0E3BBE0E0E4BBE0E0E5BBA8
:10008000EFEDEDBFC0E8D0E000C0E0E4E1BB969A40
:1000900006D0E2B3EF7AE2BB02D0F9CFFFCFE8ECB3
:1000A000F0E0FA93EA9300C0E991F991309639F0C3
:1000B00083E397E00197F1F7A8953197C9F7089581
:00000001FF
