:10000000758120758F01758900438E01759850C2E6
:10001000AC75CBFF75CA4085CBCD85CACCD2CDD2CD
:10002000CCC2ADD2CAD2CA740D120064740A1200D6
:100030006474481200647465120064746C12006485
:10004000746C120064746F12006474201200647483
:100050003E12006412006C120064B40DF7740A12B0
:10006000006480F0F5993099FDC299223098FDC264
:0400700098E5992254
:00000001FF
