:10000000758120758F01758900438E0153890F43D7
:100010008920759850C2ACC2AB53877F74F0F58DC0
:10002000F58BD28E740D120061740A12006174484F
:100030001200617465120061746C120061746C12BC
:100040000061746F1200617420120061743E12002E
:1000500061120069120061B40DF7740A1200618028
:10006000F0F5993099FDC299223098FDC298E59932
:01007000226D
:00000001FF
