000     @SCRATCH
001     @SCRATCH
001     _RETURN_
002     @SCRATCH
003     @SCRATCH
004     @SCRATCH
006     main.Dat
007     main.@SCRATCH
F71     CCP_5_LOW
F71-F72 CCP_5
F72     CCP_5_HIGH
F74-F75 CCP_4
F74     CCP_4_LOW
F75     CCP_4_HIGH
F83     PSP_DATA
FB4.6   C1OUT
FB4.7   C2OUT
FB8     CCP_3_LOW
FB8-FB9 CCP_3
FB9     CCP_3_HIGH
FBB-FBC CCP_2
FBB     CCP_2_LOW
FBC     CCP_2_HIGH
FBE     CCP_1_LOW
FBE-FBF CCP_1
FBF     CCP_1_HIGH

0000A8  main
000004  @const10021
00004E  @const10027
0000A8  @cinit

Project Files:
    C:\ET_BASE8720\Demo for 18F8722\PICC_exam\RS232_CH1_Demo\RS232_CH1.c
    C:\Program Files\PICC\devices\18F8722.h

Units:
    C:\ET_BASE8720\Demo for 18F8722\PICC_exam\RS232_CH1_Demo\RS232_CH1.c (main)

Compiler Settings:
    Processor:      PIC18F8722
    Pointer Size:   16
    ADC Range:      0-255
    Opt Level:      9
    Short,Int,Long: 1,8,16

Output Files:
    Errors:      C:\ET_BASE8720\Demo for 18F8722\PICC_exam\RS232_CH1_Demo\RS232_CH1.err
    INHX32:      C:\ET_BASE8720\Demo for 18F8722\PICC_exam\RS232_CH1_Demo\RS232_CH1.hex
    Symbols:     C:\ET_BASE8720\Demo for 18F8722\PICC_exam\RS232_CH1_Demo\RS232_CH1.sym
    List:        C:\ET_BASE8720\Demo for 18F8722\PICC_exam\RS232_CH1_Demo\RS232_CH1.lst
    Debug/COFF:  C:\ET_BASE8720\Demo for 18F8722\PICC_exam\RS232_CH1_Demo\RS232_CH1.cof
    Call Tree:   C:\ET_BASE8720\Demo for 18F8722\PICC_exam\RS232_CH1_Demo\RS232_CH1.tre
    Statistics:  C:\ET_BASE8720\Demo for 18F8722\PICC_exam\RS232_CH1_Demo\RS232_CH1.sta
