:020000040000FA
:10000000126A84EF00F0076E87968792879499961C
:10001000999299940F0E9916075012B222D03A0E67
:10002000016E980E6CEC00F0330E066E2FD8130E96
:10003000016E880E6CEC00F029D8640E6BEC00F0B9
:1000400025D8640E6BEC00F0220E066E1FD8280E29
:1000500007D80C0E05D8060E03D81282075001D01F
:100060001280066E12A00BD0879203080EE30DD803
:10007000070E016ED00E6CEC00F0D88012001280DA
:10008000FE08D8B481EF00F0878212A01290878614
:100090000F0E87160650F00B8712000000D00000EC
:1000A0008796063A000000D0000012B0EFD7320E5B
:1000B0006BEC00F0D88081EF00F0036A026EFF0E57
:1000C0000226D8A00326D8A081EF00F0030E016E0F
:1000D000E70E02D8F4D7016AFD0F006EFF0E00D0C4
:1000E00001D00026040000D0D8A00126D8A012001C
:1000F000F8D7D89000360136FF0FFBE2005081EFB1
:1001000000F0000104001200CFEC00F0FE0E7BDFD7
:10011000010E79DF540E77DF650E75DF730E73DF26
:10012000740E71DF200E6FDF4C0E6DDF430E6BDF40
:10013000440E69DF200E67DF310E65DF380E63DFA6
:10014000460E61DF380E5FDF370E5DDF320E5BDF9C
:10015000320E59DF030E036EE80EB0DFFE0E53DFE2
:10016000C00E51DF200E4FDF450E4DDF540E4BDF2A
:10017000540E49DF200E47DF430E45DF4F0E43DFAD
:100180002E0E41DF2C0E3FDF4C0E3DDF540E3BDFC9
:10019000440E39DF030E036EE80E90DFB7D7996A7D
:1001A0000F0EC16E070EB46E8794330E1A6EF2EC0A
:1001B00000F0320E1A6EF2EC00F0280E1A6EF2EC1D
:1001C00000F00C0E1A6EF2EC00F0060E1A6EF2EC55
:1001D00000F0010E1A6EF2EC00F0010E1A6EF2EC55
:1001E00000F0120087929992F00E1A141C6E1C8671
:1001F0001CC087FF879699960A0E5FDF87869996BF
:100200001AC000F0016A040E77DF1C6EF00E1C1697
:100210001C861CC087FF879699960A0E4EDF87863C
:0802200099960A0E4ADF120054
:00000001FF
