000     @SCRATCH
001     @SCRATCH
001     _RETURN_
002     @SCRATCH
003     @SCRATCH
004     @SCRATCH
006     main.i
007     main.Dat
008     main.@SCRATCH1
009     @delay_ms1.P1
F71-F72 CCP_5
F71     CCP_5_LOW
F72     CCP_5_HIGH
F74-F75 CCP_4
F74     CCP_4_LOW
F75     CCP_4_HIGH
F83     PSP_DATA
FB4.6   C1OUT
FB4.7   C2OUT
FB8     CCP_3_LOW
FB8-FB9 CCP_3
FB9     CCP_3_HIGH
FBB     CCP_2_LOW
FBB-FBC CCP_2
FBC     CCP_2_HIGH
FBE     CCP_1_LOW
FBE-FBF CCP_1
FBF     CCP_1_HIGH
FE9-FEA @READ_PROGRAM_MEMORY.P1
FE9-FEA @WRITE_PROGRAM_MEMORY.P2
FF6-FF8 @READ_PROGRAM_MEMORY.P1
FF6-FF8 @WRITE_PROGRAM_MEMORY.P2

ROM Allocation:
000004  @delay_ms1
00002C  main
00002C  @cinit

Project Directory:
    C:\ET_BASE PIC8722(ICD2)\Demo for 18F8722\Test_18F8628\Test_IO_Demo\

Project Files:
    Test_IO.c
    ..\..\..\..\Program Files\PICC\devices\18F8628.h

Units:
    Test_IO.c (main)

Compiler Settings:
    Processor:      PIC18F8628
    Pointer Size:   16
    ADC Range:      0-255
    Opt Level:      9
    Short,Int,Long: UNSIGNED: 1,8,16
    Float,Double:   32,32

Output Files:
    Errors:      Test_IO.err
    Ext Symbols: Test_IO.esym
    INHX32:      Test_IO.hex
    Symbols:     Test_IO.sym
    List:        Test_IO.lst
    Debug/COFF:  Test_IO.cof
    Project:     Test_IO.PJT
    Call Tree:   Test_IO.tre
    Statistics:  Test_IO.sta
